An Exploration of Network Analysis Through Macbeth
…
DATASET AND LIMITATIONS

The dataset of Shakespeares Macbeth was extracted from https://github.com/mallaham/Shakespeare-Plays. I did not verify completion or factual accuracy, which is why the number of characters may vary from the original play. Due to time constraints and feasibility, the network presented is unidirectional, defined by co-appearance and first speaker. Accordingly, response and further interaction is not captured appropriately. Moreover, while I initially accounted for attributes such as gender, cause.of.death and power, these did not translate into the network simulations as desired. I have hence broadened the scope of inquiry. This piece can thus be considered an explorational network analysis of what not to research, confirming social fundamentals and pointing out future aspects of network analysis of Shakespeares plays instead. Finally, the ERGM model only partially converted - with the Markov calculation excluded from the code.

HYPOTHESIS

H1 Interactions in Macbeth are random, such that intrigues and murder cannot be inferred.

H2 Malicious behaviour may be characterised by unidirectional interaction, as is expressed, for instance, in a comparatively low probability coefficient when observing a tie in a diad.

H3 Regardless, the clustering of individuals reflects findings of established eigenvector nodes.

RANDOMNESS OF TIES IN SHAKESPEARES MACBETH (H1)

## # A tibble: 188 x 2
##    from      to             
##    <chr>     <chr>          
##  1 angus     caithness      
##  2 angus     lennox         
##  3 attendant both murderers 
##  4 attendant first murderer 
##  5 attendant second murderer
##  6 banquo    angus          
##  7 banquo    attendant      
##  8 banquo    both murderers 
##  9 banquo    donalbain      
## 10 banquo    first murderer 
## # ... with 178 more rows
…
